{
  "data": [
    {
      "id": 5,
      "email": "charles.morris@reqres.in",
      "first_name": "Charles",
      "last_name": "Morris",
      "avatar": null
    },
    {
      "id": 6,
      "email": "santo2@mailchulo.es",
      "first_name": "Santiago",
      "last_name": "Campillo",
      "corrier": "DJ",
      "birthDate": "25/03/1980",
      "address": "Calle Pelicano, 23",
      "city": "Barcelona",
      "country": "España",
      "zip": 47225,
      "avatar": null
    },
    {
      "id": 7,
      "email": "pepeillo@mailchulo.es",
      "first_name": "Pedro",
      "last_name": "Picaporte",
      "corrier": "Entrenador Personal",
      "birthDate": "25/03/1980",
      "address": "Calle Tortilla, 3",
      "city": "Madrid",
      "country": "España",
      "zip": 28865,
      "avatar": null
    },
    {
      "firstName": "Antonio",
      "lastName": "Ruiz",
      "birthDate": "2022-03-07T00:00:00.000Z",
      "email": "ruiza@mail.com",
      "carrier": "Vendedor",
      "address": "Calle Lupin, 4",
      "city": "Asturias",
      "country": "España",
      "zip": 47234,
      "id": 8
    },
    {
      "firstName": "Pedro",
      "lastName": "Picaporte",
      "birthDate": "1979-02-07T00:00:00.000Z",
      "email": "pepeillo@mailchulo.es",
      "carrier": "Entrenador Personal",
      "address": "Calle Tortilla, 3",
      "city": "Madrid",
      "country": "España",
      "zip": 28865,
      "id": 9
    },
    {
      "firstName": "Pedro",
      "lastName": "Picaporte",
      "birthDate": "1992-05-13T23:00:00.000Z",
      "email": "pepeillo@mailchulo.es",
      "carrier": "Entrenador Personal",
      "address": "Calle Tortilla, 3",
      "city": "Madrid",
      "country": "España",
      "zip": 28865,
      "id": 10
    }
  ],
  "resp": [
    {
      "page": 1,
      "per_page": 6,
      "total": 12,
      "total_pages": 2,
      "support": {
        "url": "https://reqres.in/#support-heading",
        "text": "To keep ReqRes free, contributions towards server costs are appreciated!"
      }
    }
  ]
}